# .PCD v0.7 - Point Cloud Data file format
VERSION 0.7
FIELDS x y z intensity
SIZE 4 4 4 4
TYPE F F F F
COUNT 1 1 1 1
WIDTH 200
HEIGHT 1
VIEWPOINT 0 0 0 1 0 0 0
POINTS 200
DATA ascii
332.18121 -4.2417998 -124.7902 0
322.14819 -10.0584 -119.9896 0
328.72681 -16.967199 -131.3688 0
342.11261 7.6961999 -117.983 0
327.27899 -3.9116001 -119.9896 0
325.6026 -17.195801 -128.6002 0
341.12201 3.6830001 -122.682 0
339.77579 8.7122002 -115.5192 0
325.6026 -9.7027998 -123.7996 0
336.32141 -4.6989999 -128.6002 0
351.155 9.9314003 -119.5578 0
333.07019 -17.0688 -135.0518 0
345.00821 0.66039997 -128.7018 0
350.36761 9.8297997 -119.888 0
335.7626 -5.8165998 -130.048 0
332.9686 -2.2351999 -123.0122 0
332.6384 6.0198002 -112.8522 0
338.4296 3.6830001 -121.8946 0
350.8248 12.6238 -113.9698 0
337.0834 8.382 -113.411 0
339.44559 -2.4638 -129.032 0
354.50781 8.1534004 -123.3424 0
342.7984 -14.5034 -138.96339 0
369.23981 1.3462 -127.5842 0
334.08621 -12.954 -133.9342 0
357.30179 11.8364 -117.8814 0
332.40979 -6.0198002 -127.5842 0
344.47479 11.6078 -113.5126 0
332.51141 1.5748 -119.1006 0
334.51801 10.4902 -101.9048 0
324.91681 -4.4703999 -117.1956 0
357.96219 13.843 -114.8588 0
333.1972 -15.0622 -134.28979 0
351.84079 12.954 -113.284 0
339.54721 1.5748 -125.9078 0
334.8736 -20.4216 -137.414 0
347.80219 -14.6304 -139.9794 0
360.09579 -19.431 -142.31619 0
360.09579 -20.878799 -142.31619 0
339.21701 -16.078199 -139.09039 0
331.74939 -5.461 -126.6952 0
332.51141 4.4703999 -114.7572 0
330.63181 5.5879998 -108.839 0
323.13879 0.66039997 -103.5812 0
311.98819 -10.9474 -94.437202 0
314.42661 -12.7254 -75.666603 0
316.23001 -12.6238 -71.450203 0
313.5376 -11.7094 -78.689201 0
326.94879 -7.0358 -60.7314 0
313.30899 -11.2776 -80.5942 0
329.05701 -4.572 -60.7314 0
312.2168 -11.049 -86.740997 0
326.94879 -3.5813999 -64.185799 0
318.46521 -4.572 -80.8228 0
312.97879 -11.6078 -102.4636 0
331.74939 2.1082001 -66.192398 0
314.65521 -9.8297997 -102.1334 0
323.59601 1.3462 -86.512398 0
326.16141 2.6670001 -90.296997 0
326.49161 1.016 -109.2708 0
343.789 15.9512 -86.842598 0
327.05042 -14.4018 -128.7018 0
348.36099 15.9512 -103.0224 0
335.30539 1.905 -121.1072 0
332.3082 -11.1506 -130.6068 0
344.47479 9.0424004 -117.094 0
327.05042 -23.215599 -132.8166 0
346.58301 13.1826 -109.2708 0
333.75601 -0.889 -123.3424 0
335.534 -2.5653999 -126.0094 0
353.16159 19.304001 -92.989403 0
343.00159 13.5128 -107.0356 0
333.07019 -1.3462 -123.2408 0
343.68741 14.3002 -104.5972 0
333.07019 3.7846 -115.189 0
335.99121 5.3593998 -115.4176 0
346.25281 16.865601 -94.538803 0
330.83499 -1.5748 -120.777 0
335.534 8.5852003 -109.728 0
335.8642 11.049 -97.891602 0
321.2338 -10.5918 -118.3132 0
323.0372 1.905 -93.421204 0
323.46899 1.778 -85.496399 0
313.8678 -9.4996004 -100.0252 0
319.45581 -2.8956001 -81.381599 0
320.67499 -0.66039997 -89.407997 0
324.48499 1.3462 -105.3592 0
343.35721 14.732 -80.9244 0
335.534 12.065 -93.421204 0
330.7334 5.8165998 -108.1532 0
349.60559 17.4244 -98.348801 0
339.77579 10.16 -111.4044 0
347.80219 12.827 -112.2934 0
349.93579 14.3002 -109.4994 0
334.74661 -4.4703999 -127.5842 0
353.7204 18.6436 -97.231201 0
335.07681 4.4703999 -117.7544 0
337.87079 9.3725996 -110.3884 0
344.1192 16.078199 -96.545403 0
325.9328 1.3462 -109.4994 0
346.3544 16.865601 -91.185997 0
343.1286 14.8336 -99.568001 0
334.18781 2.5653999 -118.7704 0
357.8606 18.084801 -101.5746 0
336.0928 -0.55879998 -124.8918 0
350.59619 12.1666 -114.4016 0
342.67139 8.1534004 -117.5258 0
334.18781 -0.78740001 -122.8852 0
347.70059 16.306801 -100.6856 0
332.18121 1.016 -119.3292 0
334.64499 6.2484002 -111.9632 0
338.20099 9.9314003 -109.2708 0
334.74661 1.778 -120.777 0
354.40619 17.4244 -101.8032 0
340.10599 2.0065999 -124.5616 0
342.23959 9.8297997 -114.9604 0
340.66479 2.7939999 -124.5616 0
335.30539 5.9182 -115.5192 0
342.11261 1.5748 -126.7968 0
335.07681 -1.1176 -125.0188 0
349.37701 0.66039997 -130.81 0
345.13519 -6.9088001 -135.40739 0
353.6188 -1.5748 -133.0452 0
346.48141 -17.754601 -141.4272 0
358.7496 3.7846 -128.2446 0
349.14841 -17.195801 -141.52879 0
348.9198 -15.9512 -141.3002 0
353.94901 -1.3462 -132.9436 0
349.14841 -11.5062 -138.7348 0
344.67801 -22.555201 -142.64639 0
345.23679 -17.856199 -141.097 0
357.8606 7.9247999 -123.571 0
354.50781 5.0292001 -126.4666 0
342.56979 -20.32 -141.097 0
340.10599 -32.715199 -142.2146 0
347.9292 -3.9116001 -133.9342 0
354.17761 11.049 -118.2116 0
344.24619 -8.4835997 -136.06779 0
338.0994 -34.823399 -141.98599 0
341.12201 -17.9832 -139.29359 0
350.59619 10.9474 -117.7544 0
347.14182 7.5946002 -121.666 0
339.11539 -10.7188 -135.0518 0
336.54999 -25.1206 -139.9794 0
344.47479 -0.889 -130.048 0
351.94241 12.065 -115.5192 0
344.01761 -5.461 -133.8326 0
338.9884 -27.7876 -140.97 0
341.12201 -18.415001 -139.09039 0
353.49179 14.6304 -110.5154 0
340.66479 -2.8956001 -130.1496 0
335.07681 -18.415001 -136.1694 0
336.7532 3.6830001 -120.2182 0
345.56699 16.967199 -95.326202 0
332.18121 -3.9116001 -124.46 0
332.73999 -11.7094 -130.81 0
348.71661 17.0688 -98.679001 0
337.439 6.5785999 -116.205 0
328.39661 -18.5166 -131.826 0
346.48141 8.9407997 -118.999 0
358.0892 3.7846 -128.6002 0
371.14481 -8.2550001 -134.0612 0
362.33099 -10.3886 -138.5316 0
355.06659 -8.2550001 -138.17599 0
336.1944 -8.9407997 -132.715 0
336.98181 4.572 -118.872 0
323.3674 -1.2192 -109.1692 0
315.6712 -7.4675999 -103.8098 0
310.41339 -14.0716 -99.669601 0
306.73041 -20.4216 -90.525597 0
306.73041 -24.993601 -80.8228 0
305.05399 -26.466801 -95.986603 0
307.97501 -26.238199 -75.895203 0
306.40021 -26.568399 -81.381599 0
304.06339 -30.353001 -89.738197 0
309.85461 -23.6728 -72.771004 0
304.72379 -27.127199 -91.744797 0
305.5112 -24.993601 -86.944199 0
309.42279 -21.5392 -76.123802 0
306.07001 -32.486599 -106.4768 0
305.05399 -25.1206 -92.074997 0
305.8414 -24.003 -88.620598 0
306.1716 -26.466801 -102.6922 0
308.50839 -19.7612 -80.695801 0
308.0766 -30.2514 -110.1598 0
305.5112 -24.5618 -97.332802 0
308.63541 -21.5392 -77.698601 0
305.5112 -26.568399 -100.3554 0
305.94299 -21.996401 -89.738197 0
311.75961 -18.8722 -72.212196 0
305.181 -25.908001 -97.104202 0
307.7464 -19.5326 -84.277199 0
306.40021 -22.225 -88.950798 0
306.5018 -28.575001 -106.2736 0
308.50839 -18.415001 -82.7024 0
306.85739 -20.548599 -87.731598 0
306.62881 -28.4734 -106.1466 0
306.40021 -25.781 -103.251 0
309.85461 -17.525999 -78.689201 0
306.07001 -21.666201 -91.744797 0
